TRABAJOPERSONAL
…
dim(retraso)

## [1] 27789    19

print("Hay 27789 vuelos que llegaron por lo menos 1h despues de su hora de llegada estimada")

## [1] "Hay 27789 vuelos que llegaron por lo menos 1h despues de su hora de llegada estimada"

Ejercicio 2: Encuentra todos los vuelos que volaron hacia San Francisco (aeropuertos SFO y OAK)

vuelos_sf <- vuelos[vuelos$dest == "SFO" | vuelos$dest == "OAK",]
vuelos_sf

## # A tibble: 13,643 x 19
##     year month   day dep_time sched_dep_time dep_delay arr_time sched_arr_time
##    <int> <int> <int>    <int>          <int>     <dbl>    <int>          <int>
##  1  2013     1     1      558            600        -2      923            937
##  2  2013     1     1      611            600        11      945            931
##  3  2013     1     1      655            700        -5     1037           1045
##  4  2013     1     1      729            730        -1     1049           1115
##  5  2013     1     1      734            737        -3     1047           1113
##  6  2013     1     1      745            745         0     1135           1125
##  7  2013     1     1      746            746         0     1119           1129
##  8  2013     1     1      803            800         3     1132           1144
##  9  2013     1     1      826            817         9     1145           1158
## 10  2013     1     1     1029           1030        -1     1427           1355
## # ... with 13,633 more rows, and 11 more variables: arr_delay <dbl>,
## #   carrier <chr>, flight <int>, tailnum <chr>, origin <chr>, dest <chr>,
## #   air_time <dbl>, distance <dbl>, hour <dbl>, minute <dbl>, time_hour <dttm>
…
##           year          month            day       dep_time sched_dep_time 
##              0              0              0           8255              0 
##      dep_delay       arr_time sched_arr_time      arr_delay        carrier 
##           8255           8713              0           9430              0 
##         flight        tailnum         origin           dest       air_time 
##              0           2512              0              0           9430 
##       distance           hour         minute      time_hour 
##              0              0              0              0

Ejercicio 10: Ordena los vuelos de flights para encontrar los vuelos más retrasados en la salida. ¿Qué vuelos fueron los que salieron los primeros antes de lo previsto?

arrange(vuelos, desc(dep_delay))

## # A tibble: 336,776 x 19
##     year month   day dep_time sched_dep_time dep_delay arr_time sched_arr_time
##    <int> <int> <int>    <int>          <int>     <dbl>    <int>          <int>
##  1  2013     1     9      641            900      1301     1242           1530
##  2  2013     6    15     1432           1935      1137     1607           2120
##  3  2013     1    10     1121           1635      1126     1239           1810
##  4  2013     9    20     1139           1845      1014     1457           2210
##  5  2013     7    22      845           1600      1005     1044           1815
##  6  2013     4    10     1100           1900       960     1342           2211
##  7  2013     3    17     2321            810       911      135           1020
##  8  2013     6    27      959           1900       899     1236           2226
##  9  2013     7    22     2257            759       898      121           1026
## 10  2013    12     5      756           1700       896     1058           2020
## # ... with 336,766 more rows, and 11 more variables: arr_delay <dbl>,
## #   carrier <chr>, flight <int>, tailnum <chr>, origin <chr>, dest <chr>,
## #   air_time <dbl>, distance <dbl>, hour <dbl>, minute <dbl>, time_hour <dttm>

print("Encontramos los vuelos más retrasados en la salida")

## [1] "Encontramos los vuelos más retrasados en la salida"

arrange(vuelos, dep_delay)

## # A tibble: 336,776 x 19
##     year month   day dep_time sched_dep_time dep_delay arr_time sched_arr_time
##    <int> <int> <int>    <int>          <int>     <dbl>    <int>          <int>
##  1  2013    12     7     2040           2123       -43       40           2352
##  2  2013     2     3     2022           2055       -33     2240           2338
##  3  2013    11    10     1408           1440       -32     1549           1559
##  4  2013     1    11     1900           1930       -30     2233           2243
##  5  2013     1    29     1703           1730       -27     1947           1957
##  6  2013     8     9      729            755       -26     1002            955
##  7  2013    10    23     1907           1932       -25     2143           2143
##  8  2013     3    30     2030           2055       -25     2213           2250
##  9  2013     3     2     1431           1455       -24     1601           1631
## 10  2013     5     5      934            958       -24     1225           1309
## # ... with 336,766 more rows, and 11 more variables: arr_delay <dbl>,
## #   carrier <chr>, flight <int>, tailnum <chr>, origin <chr>, dest <chr>,
## #   air_time <dbl>, distance <dbl>, hour <dbl>, minute <dbl>, time_hour <dttm>

print("En este caso nos da una idea de aquellos vuelos que salieron los primeros")

## [1] "En este caso nos da una idea de aquellos vuelos que salieron los primeros"

Ejercicio 11: Ordena los vuelos de flights para encontrar los vuelos más rápidos. Usa el concepto de rapidez que consideres.

vuelos$tardanza <-(vuelos$arr_delay + vuelos$dep_delay)
arrange(vuelos, vuelos$tardanza)

## # A tibble: 336,776 x 20
##     year month   day dep_time sched_dep_time dep_delay arr_time sched_arr_time
##    <int> <int> <int>    <int>          <int>     <dbl>    <int>          <int>
##  1  2013     5     7     1715           1729       -14     1944           2110
##  2  2013     5    20      719            735       -16      951           1110
##  3  2013     2     3     2022           2055       -33     2240           2338
##  4  2013     5     3      616            630       -14      803            913
##  5  2013     5     1     1550           1610       -20     1704           1807
##  6  2013     5     4      715            730       -15      958           1105
##  7  2013     9    28     1818           1835       -17     2053           2158
##  8  2013     5     6     1846           1859       -13     2026           2134
##  9  2013    11    13      750            803       -13      925           1032
## 10  2013     7    14     2041           2059       -18     2205           2307
## # ... with 336,766 more rows, and 12 more variables: arr_delay <dbl>,
## #   carrier <chr>, flight <int>, tailnum <chr>, origin <chr>, dest <chr>,
## #   air_time <dbl>, distance <dbl>, hour <dbl>, minute <dbl>, time_hour <dttm>,
## #   tardanza <dbl>

print("Mediante la función anterior encontramos aquellos vuelos que fueron más rapidos")

## [1] "Mediante la función anterior encontramos aquellos vuelos que fueron más rapidos"

Ejercicio 12: ¿Qué vuelos tienen los trayectos más largos?

arrange(vuelos, desc(distance))

## # A tibble: 336,776 x 20
##     year month   day dep_time sched_dep_time dep_delay arr_time sched_arr_time
##    <int> <int> <int>    <int>          <int>     <dbl>    <int>          <int>
##  1  2013     1     1      857            900        -3     1516           1530
##  2  2013     1     2      909            900         9     1525           1530
##  3  2013     1     3      914            900        14     1504           1530
##  4  2013     1     4      900            900         0     1516           1530
##  5  2013     1     5      858            900        -2     1519           1530
##  6  2013     1     6     1019            900        79     1558           1530
##  7  2013     1     7     1042            900       102     1620           1530
##  8  2013     1     8      901            900         1     1504           1530
##  9  2013     1     9      641            900      1301     1242           1530
## 10  2013     1    10      859            900        -1     1449           1530
## # ... with 336,766 more rows, and 12 more variables: arr_delay <dbl>,
## #   carrier <chr>, flight <int>, tailnum <chr>, origin <chr>, dest <chr>,
## #   air_time <dbl>, distance <dbl>, hour <dbl>, minute <dbl>, time_hour <dttm>,
## #   tardanza <dbl>

print("De esta manera ordenamos los vuelos atendiendo a sus distancias de mayor a menor")

## [1] "De esta manera ordenamos los vuelos atendiendo a sus distancias de mayor a menor"

Ejercicio 13:¿Qué vuelos tienen los trayectos más cortos?

arrange(vuelos, distance)

## # A tibble: 336,776 x 20
##     year month   day dep_time sched_dep_time dep_delay arr_time sched_arr_time
##    <int> <int> <int>    <int>          <int>     <dbl>    <int>          <int>
##  1  2013     7    27       NA            106        NA       NA            245
##  2  2013     1     3     2127           2129        -2     2222           2224
##  3  2013     1     4     1240           1200        40     1333           1306
##  4  2013     1     4     1829           1615       134     1937           1721
##  5  2013     1     4     2128           2129        -1     2218           2224
##  6  2013     1     5     1155           1200        -5     1241           1306
##  7  2013     1     6     2125           2129        -4     2224           2224
##  8  2013     1     7     2124           2129        -5     2212           2224
##  9  2013     1     8     2127           2130        -3     2304           2225
## 10  2013     1     9     2126           2129        -3     2217           2224
## # ... with 336,766 more rows, and 12 more variables: arr_delay <dbl>,
## #   carrier <chr>, flight <int>, tailnum <chr>, origin <chr>, dest <chr>,
## #   air_time <dbl>, distance <dbl>, hour <dbl>, minute <dbl>, time_hour <dttm>,
## #   tardanza <dbl>
…
Ejercicio 17: Investiga si la proporción de vuelos cancelados está relacionada con el retraso promedio por día en los vuelos.

proptardanz_cancel <- 
  vuelos %>%
  mutate(cancelados = (is.na(tailnum))) %>%
  group_by(year, month, day) %>%
  summarise(prop_cancelados = mean(cancelados),med_dep_delay = mean(dep_delay, na.rm = TRUE),med_arr_delay = mean(arr_delay, na.rm = TRUE)) %>% ungroup()

## `summarise()` has grouped output by 'year', 'month'. You can override using the `.groups` argument.

proptardanz_cancel

## # A tibble: 365 x 6
##     year month   day prop_cancelados med_dep_delay med_arr_delay
##    <int> <int> <int>           <dbl>         <dbl>         <dbl>
##  1  2013     1     1         0               11.5         12.7  
##  2  2013     1     2         0.00212         13.9         12.7  
##  3  2013     1     3         0.00219         11.0          5.73 
##  4  2013     1     4         0.00219          8.95        -1.93 
##  5  2013     1     5         0.00139          5.73        -1.53 
##  6  2013     1     6         0                7.15         4.24 
##  7  2013     1     7         0.00107          5.42        -4.95 
##  8  2013     1     8         0.00111          2.55        -3.23 
##  9  2013     1     9         0.00222          2.28        -0.264
## 10  2013     1    10         0.00215          2.84        -5.90 
## # ... with 355 more rows
…
Ejercicio 22: Para cada destino, calcula el total de minutos de retraso acumulado.

retraso_totvuelos <- vuelos %>%
  filter(arr_delay > 0) %>%
  group_by(dest) %>%
  summarise(arr_delay = sum(arr_delay))
retraso_totvuelos

## # A tibble: 103 x 2
##    dest  arr_delay
##    <chr>     <dbl>
##  1 ABQ        4487
##  2 ACK        2974
##  3 ALB        9580
##  4 ANC          62
##  5 ATL      300299
##  6 AUS       39940
##  7 AVL        3671
##  8 BDL        6953
##  9 BGR        6940
## 10 BHM        7267
## # ... with 93 more rows
…
vuelos %>%
   filter(arr_delay > 0) %>%
   group_by(dest, origin, carrier, flight) %>%
   summarise(arr_delay = sum(arr_delay)) %>%
   group_by(dest) %>%
   mutate(
     arr_delay_prop = arr_delay / sum(arr_delay)
   ) %>%
   arrange(dest, desc(arr_delay_prop)) %>%
   select(carrier, flight, origin, dest, arr_delay_prop) 

## `summarise()` has grouped output by 'dest', 'origin', 'carrier'. You can override using the `.groups` argument.

## # A tibble: 8,834 x 5
## # Groups:   dest [103]
##    carrier flight origin dest  arr_delay_prop
##    <chr>    <int> <chr>  <chr>          <dbl>
##  1 B6        1505 JFK    ABQ           0.567 
##  2 B6          65 JFK    ABQ           0.433 
##  3 B6        1191 JFK    ACK           0.475 
##  4 B6        1491 JFK    ACK           0.414 
##  5 B6        1291 JFK    ACK           0.0898
##  6 B6        1195 JFK    ACK           0.0208
##  7 EV        4309 EWR    ALB           0.174 
##  8 EV        4271 EWR    ALB           0.137 
##  9 EV        4117 EWR    ALB           0.0951
## 10 EV        4088 EWR    ALB           0.0865
## # ... with 8,824 more rows
…
